{
  "key": "atlassian-connect-demo-cacheable-iframe",
  "name": "Atlassian Connect Demo - Cacheable app iframes",
  "description": "A demo of cacheable app iframes",
  "vendor": {
    "name": "Atlassian",
    "url": "https://www.atlassian.com"
  },
  "baseUrl": "{{localBaseUrl}}",
  "links": {
    "self": "{{localBaseUrl}}/atlassian-connect.json",
    "homepage": "{{localBaseUrl}}/atlassian-connect.json"
  },
  "authentication": {
    "type": "jwt"
  },
  "lifecycle": {
    "installed": "/installed"
  },
  "scopes": [
    "READ"
  ],
  "modules": {
    "generalPages": [
      {
        "key": "cacheable-iframes-guide-page",
        "cacheable": true,
        "url": "/cacheable-iframes-guide",
        "name": {
          "value": "Cacheable iframes Guide"
        },
        "location": "system.space.sidebar/main-links"
      }
    ],
    "dialogs": [
      {
        "key": "cacheable-dialog",
        "cacheable": true,
        "url": "/generic-dialog",
        "options": {
          "size": "large",
          "header": {
            "value": "Cacheable Dialog"
          }
        }
      }, {
        "key": "non-cacheable-dialog",
        "url": "/generic-dialog",
        "options": {
          "size": "large",
          "header": {
            "value": "Non-cacheable Dialog"
          }
        }
      }, {
        "key": "failing-dialog",
        "url": "/failing-dialog",
        "options": {
          "size": "large",
          "header": {
            "value": "Failing Dialog"
          }
        }
      }
    ],
    "dynamicContentMacros": [
      {
        "key": "cacheable-macro",
        "name": {
          "value": "Cacheable Macro"
        },
        "url": "/macro-view",
        "description": {
          "value": "Demo cacheable app iframe macro"
        },
        "cacheable": true,
        "featured": true,
        "width": "500px",
        "height": "200px",
        "imagePlaceholder": {
          "width": 80,
          "height": 80,
          "url": "/ACJS.png"
        },
        "editor": {
          "cacheable": true,
          "url": "/macro-editor",
          "editTitle": {
            "value": "Edit cacheable iframe macro"
          },
          "insertTitle": {
            "value": "Insert cacheable iframe macro"
          }
        }, "icon": {
          "width": 16,
          "height": 16,
          "url": "/ACJS.png"
        }
      }
    ],
    "webItems": [
      {
        "key": "cacheable-iframes-guide-system-content-menu-item",
        "location": "system.content.action/modify",
        "weight": 200,
        "styleClasses": [
          "webitem",
          "system-present-webitem"
        ],
        "url": "cacheable-iframes-guide-page",
        "context": "page",
        "target": {
          "type": "page",
          "options": {
            "key": "cacheable-iframes-guide-page"
          }
        },
        "name": {
          "value": "Cacheable app iframes guide"
        }
      }, {
        "key": "cacheable-iframes-guide-system-header-menu-item",
        "name": {
          "value": "Cacheable app iframes guide"
        },
        "location": "system.header/left",
        "weight": 200,
        "styleClasses": [
          "webitem",
          "system-present-webitem"
        ],
        "url": "cacheable-iframes-guide-page",
        "context": "page",
        "target": {
          "type": "page",
          "options": {
            "key": "cacheable-iframes-guide-page"
          }
        }
      }, {
        "key": "non-cacheable-web-item-targeting-dialog",
        "name": {
          "value": "Non-cacheable web item to dialog"
        },
        "location": "system.header/left",
        "weight": 210,
        "cacheable": false,
        "url": "/generic-dialog",
        "context": "addon",
        "target": {
          "type": "dialog",
          "options": {
            "header": {
              "value": "Non-cacheable Dialog"
            }
          }
        }
      }, {
        "key": "cacheable-web-item-targeting-dialog",
        "name": {
          "value": "Cacheable web item to dialog"
        },
        "location": "system.header/left",
        "weight": 211,
        "cacheable": true,
        "url": "/generic-dialog",
        "context": "addon",
        "target": {
          "type": "dialog",
          "options": {
            "header": {
              "value": "Cacheable Dialog"
            }
          }
        }
      }, {
        "key": "non-cacheable-web-item-targeting-inline-dialog",
        "name": {
          "value": "Non-cacheable web item to inline dialog"
        },
        "location": "system.header/left",
        "weight": 220,
        "cacheable": false,
        "url": "/generic-dialog",
        "context": "addon",
        "target": {
          "type": "inlinedialog",
          "options": {
            "width": "900px"
          }
        }
      }, {
        "key": "cacheable-web-item-targeting-inline-dialog",
        "name": {
          "value": "Cacheable web item to inline dialog"
        },
        "location": "system.header/left",
        "weight": 221,
        "cacheable": true,
        "url": "/generic-dialog",
        "context": "addon",
        "target": {
          "type": "inlinedialog",
          "options": {
            "width": "900px"
          }
        }
      }, {
        "key": "web-item-targeting-non-cacheable-dialogModule",
        "name": {
          "value": "Non-cacheable web item to non-cacheable dialogmodule"
        },
        "location": "system.header/left",
        "weight": 230,
        "context": "addon",
        "target": {
          "type": "dialogmodule",
          "options": {
            "key": "non-cacheable-dialog"
          }
        }
      }, {
        "key": "web-item-targeting-cacheable-dialogModule",
        "name": {
          "value": "Web item to cacheable dialogmodule"
        },
        "location": "system.header/left",
        "weight": 231,
        "context": "addon",
        "target": {
          "type": "dialogmodule",
          "options": {
            "key": "cacheable-dialog"
          }
        }
      }, {
        "key": "system-space-dialogModule",
        "name": {
          "value": "Cacheable iframes guide dialog"
        },
        "location": "system.space.sidebar/main-links",
        "weight": 100,
        "context": "addon",
        "target": {
          "type": "dialogmodule",
          "options": {
            "key": "cacheable-dialog"
          }
        }
      }
    ]
  }
}
